{
  "architecture": {
    "convNet": {
      "spectrograms": {
        "frame_sizes": [
          1024,
          2048,
          4096
        ],
        "hop_size": 441,
        "num_bands": 40
      },
      "training_data": {
        "test_size": 0.1,
        "val_size": 0.2,
        "random_state": 42
      },
      "paths": {
        "files": {
          "train_logs": "train_logs.csv",
          "state": "state.json",
          "model": "model.hdf5"
        },
        "dirs": {
          "store": "/path/to/data_store",
          "sandbox": "/path/to/sandbox",
          "tests": "/path/to/test_dir"
        }
      },
      "overwrite": false,
      "default_params": null
    }
  }
}
